B3 - Stock returns - ongoing project
…
A few key statistics, per asset:

log_Retornos_diarios_indice  %>% 
      group_by(symbol) %>% 
      summarise(mean = mean(Ra),
                sd = sd(Ra))
## # A tibble: 310 x 3
##    symbol        mean     sd
##    <chr>        <dbl>  <dbl>
##  1 AALR3.SA -0.000913 0.0143
##  2 ABCB4.SA  0.000302 0.0246
##  3 ABEV3.SA  0.000964 0.284 
##  4 ADHM3.SA -0.00278  0.0903
##  5 AELP3.SA -0.000292 0.167 
##  6 AFLT3.SA -0.00236  0.252 
##  7 AGRO3.SA  0.000139 0.0438
##  8 AHEB3.SA  0.000869 0.260 
##  9 ALPA4.SA  0.000484 0.0223
## 10 ALSC3.SA  0.000261 0.0187
## # ... with 300 more rows
…
